6,166,938
9,576,900
11,215,178
12,768,717
14,586,278
33,894,433
45,920,473
46,241,818
50,612,924
55,607,61
58,521,64
64,40,927
73,136,927
76,722,185
82,40,172
84,812,92
86,451,278
87,865,821
89,967,695
92,687,265
95,226,431
99,431,837
108,322,76
115,966,631
116,506,521
123,165,415
136,847,938
141,514,278
142,920,310
164,465,971
167,69,758
171,707,384
173,841,231
175,698,697
178,289,736
179,632,421
186,463,770
195,257,632
199,645,411
202,306,220
207,28,927
208,61,216
209,573,534
211,870,385
212,329,695
216,393,671
222,634,519
225,224,995
228,251,821
232,19,951
233,84,520
234,359,860
238,777,629
248,274,834
257,829,853
258,753,397
259,828,757
260,267,61
266,66,960
273,525,268
282,470,900
284,316,125
285,432,23
290,260,818
292,927,330
295,646,928
316,464,389
328,527,837
333,674,650
334,394,293
345,869,61
346,695,156
348,537,757
351,957,691
354,741,760
356,190,694
361,132,42
372,105,770
373,791,860
379,132,405
382,342,961
383,332,473
387,734,854
399,670,985
407,78,152
412,189,310
415,198,246
420,168,963
428,662,945
432,257,718
444,964,293
458,815,565
464,681,147
466,713,508
469,498,178
479,385,880
483,575,589
498,831,601
500,407,125
501,729,76
502,924,428
505,435,534
516,322,671
517,213,825
520,48,469
521,446,676
523,735,434
543,605,647
544,537,564
546,501,970
551,370,825
555,138,671
564,123,880
565,593,443
568,792,948
575,294,43
580,606,647
585,687,140
591,133,508
592,1000,903
593,268,405
596,470,430
599,233,938
604,751,42
605,358,676
606,602,502
607,895,140
609,685,220
618,837,11
619,434,389
623,303,697
628,914,502
633,578,697
634,116,862
641,434,621
643,604,490
651,534,167
653,625,22
655,136,742
658,1,22
659,346,935
661,524,411
664,104,779
666,318,328
668,314,153
671,827,397
674,338,601
675,476,911
682,466,421
684,169,996
687,695,697
699,689,767
701,465,261
704,275,694
705,881,647
706,778,328
712,280,758
714,743,178
723,718,519
734,970,697
740,442,927
745,344,22
752,133,843
756,831,138
761,328,718
764,979,928
765,246,965
768,561,261
771,626,180
790,204,866
795,516,578
799,78,28
800,244,760
802,568,948
805,542,956
807,880,28
809,693,145
814,126,881
820,305,621
828,887,495
829,644,153
833,659,944
836,18,574
849,765,866
859,406,742
864,869,3
865,960,148
868,397,214
876,816,431
883,502,433
892,284,278
893,335,965
898,782,917
901,934,152
902,522,941
907,402,420
908,864,519
912,84,741
917,354,185
918,102,183
922,836,753
935,308,742
936,964,909
938,295,502
940,997,282
949,742,881
951,653,148
952,374,561
957,211,216
962,983,411
967,140,182
968,361,866
972,973,216
973,1000,253
981,961,574
989,716,282
993,380,349
994,494,860
